{
  "@odata.context": "https://cts-ax7rtwupd1testdevret.cloudax.dynamics.com/Commerce/$metadata#Collection(Microsoft.Dynamics.Commerce.Runtime.DataModel.ProductSearchResult)",
  "value": [
    {
      "$id": "2",
      "ItemId": "9727772013",
      "ProductName": "MAX Surf Boarding Shirt",
      "ProdCategory": "M_LIFESTYLE",
      "UnitPrice": 150,
      "Qty": 1,
      "LineAmount": 9.99,
      "Image": "product1",
      "ProductId": 68719482371
    },
    {
      "$id": "3",
      "ItemId": "9727772798",
      "ProductName": "MAX Acid Wash Denim Shirt",
      "ProdCategory": "M_LIFESTYLE",
      "UnitPrice": 120,
      "Qty": 1,
      "LineAmount": 17.99,
      "Image": "product2",
      "ProductId": 68719483121
    },
    {
      "$id": "5",
      "ItemId": "9727772013",
      "ProductName": "MAX Striped Asymmetrical Fall Dress",
      "ProdCategory": "M_LIFESTYLE",
      "UnitPrice": 195,
      "Qty": 1,
      "LineAmount": 9.99,
      "Image": "product3",
      "ProductId": 68719482371
    },
    {
      "$id": "6",
      "ItemId": "9727772798",
      "ProductName": "MAX Geometric Print Crop Top",
      "ProdCategory": "M_LIFESTYLE",
      "UnitPrice": 130,
      "Qty": 1,
      "LineAmount": 17.99,
      "Image": "product4",
      "ProductId": 68719483121
    }

  ]
}